<?xml version="1.0" encoding="UTF-8" standalone="no"?>
<svg
   xmlns:dc="http://purl.org/dc/elements/1.1/"
   xmlns:cc="http://creativecommons.org/ns#"
   xmlns:rdf="http://www.w3.org/1999/02/22-rdf-syntax-ns#"
   xmlns:svg="http://www.w3.org/2000/svg"
   xmlns="http://www.w3.org/2000/svg"
   xmlns:xlink="http://www.w3.org/1999/xlink"
   xmlns:sodipodi="http://sodipodi.sourceforge.net/DTD/sodipodi-0.dtd"
   xmlns:inkscape="http://www.inkscape.org/namespaces/inkscape"
   version="1.1"
   id="svg1"
   width="16"
   height="16"
   viewBox="0 0 16 16"
   sodipodi:docname="distribute-vertical-top-symbolic.svg"
   inkscape:version="1.0alpha2 (e9bc48ab64, 2019-07-09)">
<style id="style0001">
.success{fill:#33d17a}
.warning{fill:#f57900}
.danger{fill:#cc0000}
</style>

  
<metadata
     id="metadata1512">
    <rdf:RDF>
      <cc:Work
         rdf:about="">
        <dc:format>image/svg+xml</dc:format>
        <dc:type
           rdf:resource="http://purl.org/dc/dcmitype/StillImage" />
      </cc:Work>
    </rdf:RDF>
  </metadata>
  <defs
     id="defs1510" />
  <sodipodi:namedview
     inkscape:snap-global="false"
     objecttolerance="10"
     gridtolerance="10"
     guidetolerance="10"
     id="namedview"
     showgrid="true"
     inkscape:zoom="19.209395"
     inkscape:cx="7.227979"
     inkscape:cy="9.8846126"
     inkscape:window-width="1360"
     inkscape:window-height="704"
     inkscape:window-x="0"
     inkscape:window-y="27"
     inkscape:window-maximized="1"
     inkscape:current-layer="svg1"
     inkscape:document-rotation="0">
    <inkscape:grid
       type="xygrid"
       id="grid" />
  </sodipodi:namedview>
  <g
     transform="matrix(0.666655,0,0,0.666667,-746.65331,-497.57467)"
     inkscape:label="00285"
     id="distribute-vertical-top">
    <g
       inkscape:label="#distribute_right"
       id="g18885"
       transform="rotate(-90,1151,739.362)">
      <use
         height="1250"
         width="1250"
         transform="matrix(1,0,0,0.7500174,90,177.0778)"
         id="use18887"
         y="0"
         x="0"
         xlink:href="#path5265" />
      <path
         id="path18889"
         d="m 1126.5,708.3622 v 0.9231 22.1538 0.9231 h 1.5 v -0.9231 -22.1538 -0.9231 z"
         style="opacity:1;stroke-width:1.22474"
         inkscape:connector-curvature="0"
         class="success" />
      <path
         inkscape:connector-curvature="0"
         id="rect18891"
         d="m 1121.6149,717.36218 v 14.94228 h 5.0012 v -14.94228 z"
         style="opacity:1" />
      <path
         inkscape:connector-curvature="0"
         id="rect18893"
         d="m 1135.0004,717.36218 h 5.0044 v 10.49973 h -5.0044 z"
         style="opacity:1;stroke-width:1.39254" />
      <path
         inkscape:connector-curvature="0"
         id="rect18895"
         d="m 1120,708.36218 h 24 v 24 h -24 z"
         style="opacity:0;fill:none" />
      <path
         inkscape:connector-curvature="0"
         id="path18897"
         d="m 1131.2333,715.39715 -3,-3 3,-3 v 2 h 5.5421 v -2 l 3,3 -3,3 v -2 h -5.5421 z"
         style="opacity:1"
         sodipodi:nodetypes="ccccccccccc"
         class="warning" />
      <path
         inkscape:connector-curvature="0"
         style="opacity:1;stroke-width:1.22474"
         d="m 1139.957,708.3622 v 0.9231 22.1538 0.9231 h 1.5 v -0.9231 -22.1538 -0.9231 z"
         id="path1516"
         class="success" />
    </g>
  </g>
</svg>
